[
{
    "model": "archaeological_context_records.relationtype",
    "fields": {
        "label": "Coupe",
        "txt_idx": "cutting",
        "comment": "UE en coupant une autre",
        "available": true,
        "order": 1,
        "symmetrical": false,
        "tiny_label": "",
        "inverse_relation": null
    }
},
{
    "model": "archaeological_context_records.relationtype",
    "fields": {
        "label": "Comble",
        "txt_idx": "filling",
        "comment": "UE en remplissant une autre (qui doit \u00eatre vraisemblablement une US de creusement)",
        "available": true,
        "order": 1,
        "symmetrical": false,
        "tiny_label": "",
        "inverse_relation": null
    }
},
{
    "model": "archaeological_context_records.relationtype",
    "fields": {
        "label": "Sur",
        "txt_idx": "is_above",
        "comment": "UE situ\u00e9e au-dessus d'une autre",
        "available": true,
        "order": 1,
        "symmetrical": false,
        "tiny_label": "",
        "inverse_relation": null
    }
},
{
    "model": "archaeological_context_records.relationtype",
    "fields": {
        "label": "Relation indirecte",
        "txt_idx": "indirect_relation",
        "comment": "\u00c0 pr\u00e9ciser ",
        "available": true,
        "order": 1,
        "symmetrical": true,
        "tiny_label": "",
        "inverse_relation": null
    }
},
{
    "model": "archaeological_context_records.relationtype",
    "fields": {
        "label": "Inclut",
        "txt_idx": "include",
        "comment": "UE en incluant (regroupant) d'autres (ex: tranch\u00e9e / structures ou entre structure / US, etc.)",
        "available": true,
        "order": 1,
        "symmetrical": false,
        "tiny_label": "",
        "inverse_relation": null
    }
},
{
    "model": "archaeological_context_records.relationtype",
    "fields": {
        "label": "Incluse dans",
        "txt_idx": "is_included",
        "comment": "UE faisant partie d'une autre",
        "available": true,
        "order": 1,
        "symmetrical": false,
        "tiny_label": "",
        "inverse_relation": null
    }
},
{
    "model": "archaeological_context_records.relationtype",
    "fields": {
        "label": "Sous",
        "txt_idx": "is_below",
        "comment": "UE situ\u00e9e en-dessous d'une autre",
        "available": true,
        "order": 1,
        "symmetrical": false,
        "tiny_label": "",
        "inverse_relation": null
    }
},
{
    "model": "archaeological_context_records.relationtype",
    "fields": {
        "label": "Coup\u00e9e par",
        "txt_idx": "cutted",
        "comment": "UE recoup\u00e9e par une autre",
        "available": true,
        "order": 1,
        "symmetrical": false,
        "tiny_label": "",
        "inverse_relation": null
    }
},
{
    "model": "archaeological_context_records.relationtype",
    "fields": {
        "label": "\u00c9quivaut \u00e0",
        "txt_idx": "equals",
        "comment": "UE \u00e9quivalant \u00e0 une autre",
        "available": true,
        "order": 1,
        "symmetrical": true,
        "tiny_label": null,
        "inverse_relation": null
    }
},
{
    "model": "archaeological_context_records.relationtype",
    "fields": {
        "label": "Combl\u00e9e par",
        "txt_idx": "filled_by",
        "comment": "UE remplie par une autre",
        "available": true,
        "order": 1,
        "symmetrical": false,
        "tiny_label": "",
        "inverse_relation": null
    }
}
]
