[
{
    "model": "archaeological_operations.acttype",
    "fields": {
        "label": "Arr\u00eat\u00e9 de diagnostic",
        "txt_idx": "diagnostic_order",
        "comment": "Un arr\u00eat\u00e9 prescrivant la r\u00e9alisation d'un diagnostic sur une surface donn\u00e9e, SANS pr\u00e9cision du responsable scientifique, SANS pr\u00e9cision de l'op\u00e9rateur",
        "available": true,
        "intented_to": "O",
        "code": "A_DIAG",
        "indexed": true,
        "associated_template": []
    }
},
{
    "model": "archaeological_operations.acttype",
    "fields": {
        "label": "Arr\u00eat\u00e9 de prescription de fouille",
        "txt_idx": "excavation_order",
        "comment": "Un arr\u00eat\u00e9 prescrivant la r\u00e9alisation d'une fouille pr\u00e9ventive sur une surface donn\u00e9e",
        "available": true,
        "intented_to": "O",
        "code": "A_F_PREV",
        "indexed": true,
        "associated_template": []
    }
},
{
    "model": "archaeological_operations.acttype",
    "fields": {
        "label": "R\u00e9ponse POSITIVE \u00e0 une demande d'AVIS",
        "txt_idx": "pos_advice_reply",
        "comment": "Suite \u00e0 une demande d'avis, les SRA \u00e9met un courrier signalant sa volont\u00e9 de prescrire un diagnostic ou une fouille sur l'emprise du projet en objet.",
        "available": true,
        "intented_to": "F",
        "code": "AVIS_DIAG",
        "indexed": false,
        "associated_template": []
    }
},
{
    "model": "archaeological_operations.acttype",
    "fields": {
        "label": "R\u00e9ponse RAS \u00e0 une demande d'AVIS",
        "txt_idx": "neg_advice_reply",
        "comment": "Suite \u00e0 une demande d'avis, les SRA \u00e9met un courrier signalant sa volont\u00e9 de NE PAS prescrire un diagnostic ou une fouille sur l'emprise du projet en objet.",
        "available": true,
        "intented_to": "F",
        "code": "Art_12_RAS",
        "indexed": false,
        "associated_template": []
    }
},
{
    "model": "archaeological_operations.acttype",
    "fields": {
        "label": "Arr\u00eat\u00e9 d'autorisation de fouille pr\u00e9ventive",
        "txt_idx": "excavation_autorization_order",
        "comment": "Arr\u00eat\u00e9 qui donne l'autorisation \u00e0 un Am\u00e9nageur de faire ex\u00e9cuter par un Op\u00e9rateur agr\u00e9e sous la responsabilit\u00e9 d'un Responsable scientifique, une op\u00e9ration.",
        "available": true,
        "intented_to": "O",
        "code": "AUT_F_PREV",
        "indexed": true,
        "associated_template": []
    }
},
{
    "model": "archaeological_operations.acttype",
    "fields": {
        "label": "Arr\u00eat\u00e9 d'autorisation de fouille programm\u00e9e",
        "txt_idx": "prog_excav_autorization_order",
        "comment": "Arr\u00eat\u00e9 donnant l'autorisation \u00e0 une responsable scientifique de fouiller sur un terrain donn\u00e9.",
        "available": true,
        "intented_to": "O",
        "code": "AUT_F_PROG",
        "indexed": true,
        "associated_template": []
    }
},
{
    "model": "archaeological_operations.acttype",
    "fields": {
        "label": "R\u00e9ponse NON prescription \u00e0 une saisine",
        "txt_idx": "reply_no_prescription",
        "comment": "Suite \u00e0 une Saisine (art.8), envoi d'une r\u00e9ponse de non prescription",
        "available": true,
        "intented_to": "F",
        "code": "RAS",
        "indexed": false,
        "associated_template": []
    }
},
{
    "model": "archaeological_operations.acttype",
    "fields": {
        "label": "Arr\u00eat\u00e9 de d\u00e9signation de RS",
        "txt_idx": "responsible_act",
        "comment": "",
        "available": true,
        "intented_to": "O",
        "code": "DESIGN_RS",
        "indexed": true,
        "associated_template": []
    }
},
{
    "model": "archaeological_operations.acttype",
    "fields": {
        "label": "Arr\u00eat\u00e9 de d\u00e9signation d'op\u00e9rateur",
        "txt_idx": "operator_designation_act",
        "comment": "D\u00e9signation de l'op\u00e9rateur pour un diagnostic : utile dans le cas o\u00f9 un service territorial ET l'INRAP sont en m\u00eame temps comp\u00e9tents pour un territoire donn\u00e9.",
        "available": true,
        "intented_to": "O",
        "code": "DES_OPE",
        "indexed": true,
        "associated_template": []
    }
},
{
    "model": "archaeological_operations.acttype",
    "fields": {
        "label": "Arr\u00eat\u00e9 d'autorisation de prospection th\u00e9matique",
        "txt_idx": "thematic_survey_act",
        "comment": "",
        "available": true,
        "intented_to": "O",
        "code": "",
        "indexed": true,
        "associated_template": []
    }
},
{
    "model": "archaeological_operations.acttype",
    "fields": {
        "label": "Arr\u00eat\u00e9 INITIAL (d\u00e9finissant les d\u00e9lais de saisine par tranches, Article R523-21)",
        "txt_idx": "initial_act",
        "comment": "Lorsque des op\u00e9rations sont r\u00e9alis\u00e9es par tranches successives, le calendrier pr\u00e9visionnel de leur r\u00e9alisation est communiqu\u00e9 au pr\u00e9fet de r\u00e9gion qui peut d\u00e9cider de prescrire les mesures pr\u00e9vues \u00e0 l'article R. 523-15 soit pour la totalit\u00e9 du projet, soit lors de l'ex\u00e9cution de chaque tranche. Dans ce dernier cas, il d\u00e9finit par arr\u00eat\u00e9 les d\u00e9lais de sa saisine et la nature des documents \u00e0 fournir.\r\nLes op\u00e9rations de diagnostic sont toutefois conduites pour l'ensemble du projet si la personne qui r\u00e9alise ce projet en fait la demande.\r\n",
        "available": true,
        "intented_to": "F",
        "code": "A_INITIAL",
        "indexed": true,
        "associated_template": []
    }
},
{
    "model": "archaeological_operations.acttype",
    "fields": {
        "label": "Arr\u00eat\u00e9 modificatif",
        "txt_idx": "modif_act_ope",
        "comment": "Modification d'un autre arr\u00eat\u00e9 concernant une op\u00e9ration",
        "available": true,
        "intented_to": "O",
        "code": "A_MODIF_SU",
        "indexed": true,
        "associated_template": []
    }
},
{
    "model": "archaeological_operations.acttype",
    "fields": {
        "label": "Arr\u00eat\u00e9 modificatif (Initial)",
        "txt_idx": "modif_act_init",
        "comment": "Modification d'un arr\u00eat\u00e9 d\u00e9finissant les d\u00e9lais de saisines (arr\u00eat\u00e9 initial)",
        "available": true,
        "intented_to": "F",
        "code": "",
        "indexed": true,
        "associated_template": []
    }
},
{
    "model": "archaeological_operations.acttype",
    "fields": {
        "label": "AR : Accus\u00e9 de r\u00e9ception dossier",
        "txt_idx": "a_receipt",
        "comment": "Document attestant de la r\u00e9ception d'un dossier",
        "available": true,
        "intented_to": "F",
        "code": "AR",
        "indexed": false,
        "associated_template": [
            [
                "accuse-de-reception-dun-dossier"
            ]
        ]
    }
},
{
    "model": "archaeological_operations.acttype",
    "fields": {
        "label": "R\u00e9ponse POSITIVE \u00e0 une demande d'INFO",
        "txt_idx": "info_pos",
        "comment": "",
        "available": true,
        "intented_to": "F",
        "code": "INFO",
        "indexed": false,
        "associated_template": []
    }
},
{
    "model": "archaeological_operations.acttype",
    "fields": {
        "label": "R\u00e9ponse RAS \u00e0 une demande d'INFO",
        "txt_idx": "info_ras",
        "comment": "",
        "available": true,
        "intented_to": "F",
        "code": "INFO_RAS",
        "indexed": false,
        "associated_template": []
    }
},
{
    "model": "archaeological_operations.acttype",
    "fields": {
        "label": "Arr\u00eat\u00e9 de sondage",
        "txt_idx": "sondage_act",
        "comment": "",
        "available": true,
        "intented_to": "O",
        "code": "Arr_sond",
        "indexed": true,
        "associated_template": []
    }
},
{
    "model": "archaeological_operations.acttype",
    "fields": {
        "label": "Courrier d'accord sur PSTI DIAG",
        "txt_idx": "ok_project_diag",
        "comment": "",
        "available": true,
        "intented_to": "O",
        "code": "C_PSTI_OK",
        "indexed": false,
        "associated_template": []
    }
},
{
    "model": "archaeological_operations.acttype",
    "fields": {
        "label": "Courrier am\u00e9nageur transmission rapport",
        "txt_idx": "contractor_post_ope_mail",
        "comment": "",
        "available": true,
        "intented_to": "O",
        "code": "RAP_Amenag",
        "indexed": false,
        "associated_template": []
    }
},
{
    "model": "archaeological_operations.acttype",
    "fields": {
        "label": "Courrier am\u00e9nageur lib\u00e9ration TOTALE  terrain post DIAG",
        "txt_idx": "RAS_Post_DIAG",
        "comment": "",
        "available": true,
        "intented_to": "O",
        "code": "RAS_DIAG",
        "indexed": false,
        "associated_template": []
    }
},
{
    "model": "archaeological_operations.acttype",
    "fields": {
        "label": "Courrier am\u00e9nageur lib\u00e9ration TOTALE  terrain post FOUILLE",
        "txt_idx": "free_field",
        "comment": "",
        "available": true,
        "intented_to": "O",
        "code": "Lib_Terr",
        "indexed": false,
        "associated_template": []
    }
},
{
    "model": "archaeological_operations.acttype",
    "fields": {
        "label": "Arr\u00eat\u00e9 d'abrogation de DIAG",
        "txt_idx": "cancel_act",
        "comment": "",
        "available": true,
        "intented_to": "O",
        "code": "ABROG",
        "indexed": true,
        "associated_template": []
    }
},
{
    "model": "archaeological_operations.acttype",
    "fields": {
        "label": "R\u00e9ponse RAS \u00e0 un CU",
        "txt_idx": "CU_ok",
        "comment": "",
        "available": true,
        "intented_to": "F",
        "code": "CU_RAS",
        "indexed": false,
        "associated_template": []
    }
},
{
    "model": "archaeological_operations.acttype",
    "fields": {
        "label": "R\u00e9ponse POSITIVE \u00e0 un CU",
        "txt_idx": "pos_CU",
        "comment": "",
        "available": true,
        "intented_to": "F",
        "code": "CU_POSITIF",
        "indexed": false,
        "associated_template": []
    }
},
{
    "model": "archaeological_operations.acttype",
    "fields": {
        "label": "Arr\u00eat\u00e9 modificatif de la consistance du projet",
        "txt_idx": "project_modif_act",
        "comment": "",
        "available": true,
        "intented_to": "O",
        "code": "A_MODIF_PR",
        "indexed": true,
        "associated_template": []
    }
},
{
    "model": "archaeological_operations.acttype",
    "fields": {
        "label": "Arr\u00eat\u00e9 de zonage arch\u00e9ologqiue",
        "txt_idx": "archaeological_zoning",
        "comment": "",
        "available": true,
        "intented_to": "F",
        "code": "ZONAGE",
        "indexed": true,
        "associated_template": []
    }
},
{
    "model": "archaeological_operations.acttype",
    "fields": {
        "label": "Courrier am\u00e9nageur Diagnostic",
        "txt_idx": "mail_diag",
        "comment": "Courrier qui accompagne l'arr\u00eat\u00e9 de diagnostic envoy\u00e9 \u00e0 l'am\u00e9nageur",
        "available": true,
        "intented_to": "O",
        "code": "COUR_DIAG",
        "indexed": false,
        "associated_template": []
    }
},
{
    "model": "archaeological_operations.acttype",
    "fields": {
        "label": "Arr\u00eat\u00e9 d'autorisation de prospection inventaire",
        "txt_idx": "general_survey_act",
        "comment": "",
        "available": true,
        "intented_to": "O",
        "code": "PI",
        "indexed": true,
        "associated_template": []
    }
},
{
    "model": "archaeological_operations.acttype",
    "fields": {
        "label": "Courrier diag existe deja S_Instructeur",
        "txt_idx": "diag_already",
        "comment": "",
        "available": true,
        "intented_to": "F",
        "code": "DIAG_EXIST",
        "indexed": false,
        "associated_template": []
    }
},
{
    "model": "archaeological_operations.acttype",
    "fields": {
        "label": "Courrier diag existe deja AMENAGEUR",
        "txt_idx": "diag_already_land",
        "comment": "",
        "available": true,
        "intented_to": "F",
        "code": "DIAG_dejaA",
        "indexed": false,
        "associated_template": []
    }
},
{
    "model": "archaeological_operations.acttype",
    "fields": {
        "label": "Courrier am\u00e9nageur Prescription de Fouille",
        "txt_idx": "land_plan_excavation_mail",
        "comment": "",
        "available": true,
        "intented_to": "O",
        "code": "C_Am_FOUIL",
        "indexed": false,
        "associated_template": []
    }
},
{
    "model": "archaeological_operations.acttype",
    "fields": {
        "label": "Courrier Service Instructeur DIAG",
        "txt_idx": "town_planning_diag_mail",
        "comment": "",
        "available": true,
        "intented_to": "O",
        "code": "C_SI_DIAG",
        "indexed": false,
        "associated_template": []
    }
},
{
    "model": "archaeological_operations.acttype",
    "fields": {
        "label": "Courrier COLL TERR DIAG",
        "txt_idx": "terr_service_diag_mail",
        "comment": "",
        "available": true,
        "intented_to": "O",
        "code": "C_COLL_TER",
        "indexed": false,
        "associated_template": []
    }
},
{
    "model": "archaeological_operations.acttype",
    "fields": {
        "label": "Courrier INTENTION de prescrire une FOUILLE",
        "txt_idx": "excavation_mail",
        "comment": "Courrier \u00e0 l'am\u00e9nageur lui indiquant l'intention de prescrire une fouille directement sur un Dossier",
        "available": true,
        "intented_to": "F",
        "code": "C_INT_pres",
        "indexed": false,
        "associated_template": []
    }
},
{
    "model": "archaeological_operations.acttype",
    "fields": {
        "label": "Courrier Service Instructeur FOUILLE DIRECTE",
        "txt_idx": "mail_excavation_urbanism",
        "comment": "",
        "available": true,
        "intented_to": "O",
        "code": "C_SI_Fouil",
        "indexed": false,
        "associated_template": []
    }
},
{
    "model": "archaeological_operations.acttype",
    "fields": {
        "label": "Courrier am\u00e9nageur lib\u00e9ration PARTIELLE terrain post DIAG",
        "txt_idx": "part_free_diag",
        "comment": "Suite \u00e0 une demande de l'am\u00e9nageur, si une partie des terrains ne contient pas de vestiges, il est possible de faire une lib\u00e9ration partielle.",
        "available": true,
        "intented_to": "O",
        "code": "LIB_PART",
        "indexed": false,
        "associated_template": []
    }
},
{
    "model": "archaeological_operations.acttype",
    "fields": {
        "label": "PV CR de Visite",
        "txt_idx": "PV_CR",
        "comment": "PV relatant une visite particuli\u00e8re de contr\u00f4le du SRA lors d'une op\u00e9ration d'arch\u00e9ologie",
        "available": true,
        "intented_to": "O",
        "code": "PV_CR",
        "indexed": false,
        "associated_template": []
    }
},
{
    "model": "archaeological_operations.acttype",
    "fields": {
        "label": "R\u00e9ponse POSITIVE \u00e0 une demande d'AVIS (demande de complements)",
        "txt_idx": "pas_advice_reply_bis",
        "comment": "Suite \u00e0 une demande d'avis, les SRA \u00e9met un courrier signalant sa volont\u00e9 de prescrire un diagnostic ou une fouille sur l'emprise du projet en objet.",
        "available": true,
        "intented_to": "F",
        "code": "AVIS_DIAG2",
        "indexed": false,
        "associated_template": []
    }
},
{
    "model": "archaeological_operations.acttype",
    "fields": {
        "label": "Courrier demande Modif PSTI",
        "txt_idx": "modif_project",
        "comment": "",
        "available": true,
        "intented_to": "O",
        "code": "MODIF_PSTI",
        "indexed": false,
        "associated_template": []
    }
},
{
    "model": "archaeological_operations.acttype",
    "fields": {
        "label": "Courrier am\u00e9nageur demande de confirmation de projet ",
        "txt_idx": "mail_confirm",
        "comment": "(Art. R523-19 du code du patrimoine)\r\n\r\nLe pr\u00e9fet de r\u00e9gion dispose d'un d\u00e9lai de trois mois \u00e0 compter de la r\u00e9ception du rapport de diagnostic complet pour notifier le contenu des prescriptions post\u00e9rieures au diagnostic.\r\nLa date de r\u00e9ception du rapport de diagnostic complet est notifi\u00e9e par le pr\u00e9fet de r\u00e9gion \u00e0 l'autorit\u00e9 qui instruit la demande d'autorisation et \u00e0 l'am\u00e9nageur.\r\nDans le cas o\u00f9 le diagnostic a d\u00e9j\u00e0 \u00e9t\u00e9 r\u00e9alis\u00e9 en application de l'article R. 523-14, le d\u00e9lai de trois mois court \u00e0 compter de la r\u00e9ception du dossier par le pr\u00e9fet de r\u00e9gion dans les conditions pr\u00e9vues aux articles R. 523-9 et R. 523-10 ou de la confirmation par l'am\u00e9nageur de son intention de r\u00e9aliser les am\u00e9nagements, ouvrages ou travaux projet\u00e9s.\r\nA d\u00e9faut de notification dans ce d\u00e9lai, le pr\u00e9fet de r\u00e9gion est r\u00e9put\u00e9 avoir renonc\u00e9 \u00e0 \u00e9dicter de telles prescriptions.",
        "available": true,
        "intented_to": "O",
        "code": "CONFIRM",
        "indexed": false,
        "associated_template": []
    }
},
{
    "model": "archaeological_operations.acttype",
    "fields": {
        "label": "BE DAPA Rapport DIAG",
        "txt_idx": "report_post",
        "comment": "",
        "available": true,
        "intented_to": "O",
        "code": "DAPA_DIAG",
        "indexed": false,
        "associated_template": []
    }
},
{
    "model": "archaeological_operations.acttype",
    "fields": {
        "label": "BE Mairie Rapport DIAG",
        "txt_idx": "post_report_town",
        "comment": "",
        "available": true,
        "intented_to": "O",
        "code": "BE_MAIRIE",
        "indexed": false,
        "associated_template": []
    }
},
{
    "model": "archaeological_operations.acttype",
    "fields": {
        "label": "BE INRAP Rapport Diag autre Op\u00e9rateur",
        "txt_idx": "post_report_inrap",
        "comment": "",
        "available": true,
        "intented_to": "O",
        "code": "INRAP_RAP",
        "indexed": false,
        "associated_template": []
    }
},
{
    "model": "archaeological_operations.acttype",
    "fields": {
        "label": "Courrier Op\u00e9rateur Rapport NON conforme",
        "txt_idx": "bad_report",
        "comment": "",
        "available": true,
        "intented_to": "O",
        "code": "REFUS_RAPP",
        "indexed": false,
        "associated_template": []
    }
},
{
    "model": "archaeological_operations.acttype",
    "fields": {
        "label": "AR : Rapport DIAG Op\u00e9rateur",
        "txt_idx": "AR_operator",
        "comment": "",
        "available": true,
        "intented_to": "O",
        "code": "AR_OPER",
        "indexed": false,
        "associated_template": []
    }
},
{
    "model": "archaeological_operations.acttype",
    "fields": {
        "label": "AR : Rapport FOUILLE Op\u00e9rateur",
        "txt_idx": "ar_report_excavation",
        "comment": "",
        "available": true,
        "intented_to": "O",
        "code": "AR_FOUILLE",
        "indexed": false,
        "associated_template": []
    }
},
{
    "model": "archaeological_operations.acttype",
    "fields": {
        "label": "FICHE R\u00e9ception et transmission des rapports d\u2019op\u00e9ration",
        "txt_idx": "OPE_sheetfile",
        "comment": "",
        "available": true,
        "intented_to": "O",
        "code": "FICHE_OPE",
        "indexed": false,
        "associated_template": []
    }
},
{
    "model": "archaeological_operations.acttype",
    "fields": {
        "label": "R\u00e9ponse POSITIVE \u00e0 une demande d'AVIS sur \u00e9tude pr\u00e9alable et diagnostic architectural (MH)",
        "txt_idx": "pos_advice_mh",
        "comment": "",
        "available": true,
        "intented_to": "F",
        "code": "AVIS_POS_M",
        "indexed": false,
        "associated_template": []
    }
},
{
    "model": "archaeological_operations.acttype",
    "fields": {
        "label": "R\u00e9ponse RAS \u00e0 une demande d'AVIS sur \u00e9tude pr\u00e9alable et diagnostic architectural (MH)",
        "txt_idx": "neg_advice_MH",
        "comment": "",
        "available": true,
        "intented_to": "F",
        "code": "AVIS_RAS_M",
        "indexed": false,
        "associated_template": []
    }
},
{
    "model": "archaeological_operations.acttype",
    "fields": {
        "label": "AR : demande de pr\u00eat",
        "txt_idx": "loan_demand_receipt",
        "comment": "",
        "available": true,
        "intented_to": "TF",
        "code": "AR_demande",
        "indexed": false,
        "associated_template": []
    }
},
{
    "model": "archaeological_operations.acttype",
    "fields": {
        "label": "Constat d'\u00e9tat",
        "txt_idx": "observation_status",
        "comment": "",
        "available": true,
        "intented_to": "T",
        "code": "",
        "indexed": false,
        "associated_template": [
            [
                "document-de-reference"
            ]
        ]
    }
},
{
    "model": "archaeological_operations.period",
    "fields": {
        "label": "Pal\u00e9olithique",
        "txt_idx": "paleolithic",
        "comment": "",
        "available": true,
        "order": 8000,
        "start_date": null,
        "end_date": null,
        "parent": null
    }
},
{
    "model": "archaeological_operations.period",
    "fields": {
        "label": "Pal\u00e9olithique ancien",
        "txt_idx": "ancien-paleolithic",
        "comment": "",
        "available": true,
        "order": 8900,
        "start_date": null,
        "end_date": null,
        "parent": [
            "paleolithic"
        ]
    }
},
{
    "model": "archaeological_operations.period",
    "fields": {
        "label": "Pal\u00e9olithique moyen",
        "txt_idx": "middle-paleolithic",
        "comment": "",
        "available": true,
        "order": 8800,
        "start_date": null,
        "end_date": null,
        "parent": [
            "paleolithic"
        ]
    }
},
{
    "model": "archaeological_operations.period",
    "fields": {
        "label": "Pal\u00e9olithique sup\u00e9rieur",
        "txt_idx": "late-paleolithic",
        "comment": "",
        "available": true,
        "order": 8700,
        "start_date": null,
        "end_date": null,
        "parent": [
            "paleolithic"
        ]
    }
},
{
    "model": "archaeological_operations.period",
    "fields": {
        "label": "Pal\u00e9olithique sup\u00e9rieur final",
        "txt_idx": "final-paleolithic",
        "comment": "",
        "available": true,
        "order": 8600,
        "start_date": null,
        "end_date": null,
        "parent": [
            "paleolithic"
        ]
    }
},
{
    "model": "archaeological_operations.period",
    "fields": {
        "label": "M\u00e9solithique",
        "txt_idx": "mesolithic",
        "comment": "",
        "available": true,
        "order": 7000,
        "start_date": null,
        "end_date": null,
        "parent": null
    }
},
{
    "model": "archaeological_operations.period",
    "fields": {
        "label": "M\u00e9solithique ancien",
        "txt_idx": "old-mesolithic",
        "comment": "",
        "available": true,
        "order": 7900,
        "start_date": null,
        "end_date": null,
        "parent": [
            "mesolithic"
        ]
    }
},
{
    "model": "archaeological_operations.period",
    "fields": {
        "label": "M\u00e9solithique moyen",
        "txt_idx": "middle-mesolithic",
        "comment": "",
        "available": true,
        "order": 7800,
        "start_date": null,
        "end_date": null,
        "parent": [
            "mesolithic"
        ]
    }
},
{
    "model": "archaeological_operations.period",
    "fields": {
        "label": "M\u00e9solithique r\u00e9cent",
        "txt_idx": "recent-mesolithic",
        "comment": "",
        "available": true,
        "order": 7700,
        "start_date": null,
        "end_date": null,
        "parent": [
            "mesolithic"
        ]
    }
},
{
    "model": "archaeological_operations.period",
    "fields": {
        "label": "N\u00e9olithique",
        "txt_idx": "neolithic",
        "comment": "",
        "available": true,
        "order": 6000,
        "start_date": null,
        "end_date": null,
        "parent": null
    }
},
{
    "model": "archaeological_operations.period",
    "fields": {
        "label": "N\u00e9olithique ancien",
        "txt_idx": "old-neolithic",
        "comment": "",
        "available": true,
        "order": 6900,
        "start_date": null,
        "end_date": null,
        "parent": [
            "neolithic"
        ]
    }
},
{
    "model": "archaeological_operations.period",
    "fields": {
        "label": "N\u00e9olithique moyen",
        "txt_idx": "middle-neolithic",
        "comment": "",
        "available": true,
        "order": 6800,
        "start_date": null,
        "end_date": null,
        "parent": [
            "neolithic"
        ]
    }
},
{
    "model": "archaeological_operations.period",
    "fields": {
        "label": "N\u00e9olithique r\u00e9cent",
        "txt_idx": "recent-neolithic",
        "comment": "",
        "available": true,
        "order": 6700,
        "start_date": null,
        "end_date": null,
        "parent": [
            "neolithic"
        ]
    }
},
{
    "model": "archaeological_operations.period",
    "fields": {
        "label": "N\u00e9olithique final",
        "txt_idx": "final-neolithic",
        "comment": "",
        "available": true,
        "order": 6600,
        "start_date": null,
        "end_date": null,
        "parent": [
            "neolithic"
        ]
    }
},
{
    "model": "archaeological_operations.period",
    "fields": {
        "label": "Protohistoire",
        "txt_idx": "protohistory",
        "comment": "",
        "available": true,
        "order": 5000,
        "start_date": null,
        "end_date": null,
        "parent": null
    }
},
{
    "model": "archaeological_operations.period",
    "fields": {
        "label": "\u00c2ge du Bronze",
        "txt_idx": "bronze-age",
        "comment": "",
        "available": true,
        "order": 5800,
        "start_date": null,
        "end_date": null,
        "parent": [
            "protohistory"
        ]
    }
},
{
    "model": "archaeological_operations.period",
    "fields": {
        "label": "\u00c2ge du Bronze ancien",
        "txt_idx": "old-bronze-age",
        "comment": "",
        "available": true,
        "order": 5890,
        "start_date": null,
        "end_date": null,
        "parent": [
            "bronze-age"
        ]
    }
},
{
    "model": "archaeological_operations.period",
    "fields": {
        "label": "\u00c2ge du Bronze moyen",
        "txt_idx": "middle-bronze-age",
        "comment": "",
        "available": true,
        "order": 5870,
        "start_date": null,
        "end_date": null,
        "parent": [
            "bronze-age"
        ]
    }
},
{
    "model": "archaeological_operations.period",
    "fields": {
        "label": "\u00c2ge du Bronze final",
        "txt_idx": "final-bronze-age",
        "comment": "",
        "available": true,
        "order": 5850,
        "start_date": null,
        "end_date": null,
        "parent": [
            "bronze-age"
        ]
    }
},
{
    "model": "archaeological_operations.period",
    "fields": {
        "label": "\u00c2ge du Fer",
        "txt_idx": "iron-age",
        "comment": "",
        "available": true,
        "order": 5700,
        "start_date": null,
        "end_date": null,
        "parent": [
            "protohistory"
        ]
    }
},
{
    "model": "archaeological_operations.period",
    "fields": {
        "label": "Premier \u00c2ge du Fer",
        "txt_idx": "first-iron-age",
        "comment": "",
        "available": true,
        "order": 5790,
        "start_date": null,
        "end_date": null,
        "parent": [
            "iron-age"
        ]
    }
},
{
    "model": "archaeological_operations.period",
    "fields": {
        "label": "Deuxi\u00e8me \u00c2ge du Fer",
        "txt_idx": "second-iron-age",
        "comment": "",
        "available": true,
        "order": 5770,
        "start_date": null,
        "end_date": null,
        "parent": [
            "iron-age"
        ]
    }
},
{
    "model": "archaeological_operations.period",
    "fields": {
        "label": "Gallo-romain",
        "txt_idx": "gallo-roman",
        "comment": "",
        "available": true,
        "order": 4000,
        "start_date": null,
        "end_date": null,
        "parent": null
    }
},
{
    "model": "archaeological_operations.period",
    "fields": {
        "label": "R\u00e9publique",
        "txt_idx": "republic",
        "comment": "",
        "available": true,
        "order": 4900,
        "start_date": null,
        "end_date": null,
        "parent": [
            "gallo-roman"
        ]
    }
},
{
    "model": "archaeological_operations.period",
    "fields": {
        "label": "Haut Empire",
        "txt_idx": "high-empire",
        "comment": "",
        "available": true,
        "order": 4800,
        "start_date": null,
        "end_date": null,
        "parent": [
            "gallo-roman"
        ]
    }
},
{
    "model": "archaeological_operations.period",
    "fields": {
        "label": "Bas Empire",
        "txt_idx": "low-empire",
        "comment": "",
        "available": true,
        "order": 4700,
        "start_date": null,
        "end_date": null,
        "parent": [
            "gallo-roman"
        ]
    }
},
{
    "model": "archaeological_operations.period",
    "fields": {
        "label": "Moyen \u00c2ge",
        "txt_idx": "middle-age",
        "comment": "",
        "available": true,
        "order": 3000,
        "start_date": null,
        "end_date": null,
        "parent": null
    }
},
{
    "model": "archaeological_operations.period",
    "fields": {
        "label": "Haut Moyen \u00c2ge",
        "txt_idx": "high-middle-age",
        "comment": "",
        "available": true,
        "order": 3900,
        "start_date": null,
        "end_date": null,
        "parent": [
            "middle-age"
        ]
    }
},
{
    "model": "archaeological_operations.period",
    "fields": {
        "label": "Moyen \u00c2ge classique",
        "txt_idx": "classic-middle-age",
        "comment": "",
        "available": true,
        "order": 3800,
        "start_date": null,
        "end_date": null,
        "parent": [
            "middle-age"
        ]
    }
},
{
    "model": "archaeological_operations.period",
    "fields": {
        "label": "Bas Moyen \u00c2ge",
        "txt_idx": "low-middle-age",
        "comment": "",
        "available": true,
        "order": 3700,
        "start_date": null,
        "end_date": null,
        "parent": [
            "middle-age"
        ]
    }
},
{
    "model": "archaeological_operations.period",
    "fields": {
        "label": "P\u00e9riode r\u00e9cente",
        "txt_idx": "recent-times",
        "comment": "",
        "available": true,
        "order": 2000,
        "start_date": null,
        "end_date": null,
        "parent": null
    }
},
{
    "model": "archaeological_operations.period",
    "fields": {
        "label": "\u00c9poque moderne",
        "txt_idx": "modern",
        "comment": "",
        "available": true,
        "order": 2900,
        "start_date": null,
        "end_date": null,
        "parent": [
            "recent-times"
        ]
    }
},
{
    "model": "archaeological_operations.period",
    "fields": {
        "label": "\u00c9poque contemporaine",
        "txt_idx": "contemporary",
        "comment": "",
        "available": true,
        "order": 2800,
        "start_date": null,
        "end_date": null,
        "parent": [
            "recent-times"
        ]
    }
},
{
    "model": "archaeological_operations.period",
    "fields": {
        "label": "\u00c9poque ind\u00e9termin\u00e9e",
        "txt_idx": "indeterminate",
        "comment": "",
        "available": true,
        "order": 1000,
        "start_date": null,
        "end_date": null,
        "parent": null
    }
},
{
    "model": "archaeological_operations.period",
    "fields": {
        "label": "Non-renseign\u00e9",
        "txt_idx": "not-yet-documented",
        "comment": "",
        "available": true,
        "order": 0,
        "start_date": null,
        "end_date": null,
        "parent": null
    }
},
{
    "model": "archaeological_operations.period",
    "fields": {
        "label": "M\u00e9diterran\u00e9en",
        "txt_idx": "mediterranean",
        "comment": "",
        "available": true,
        "order": 10000,
        "start_date": null,
        "end_date": null,
        "parent": null
    }
},
{
    "model": "archaeological_operations.period",
    "fields": {
        "label": "Antiquit\u00e9 m\u00e9diterran\u00e9enne",
        "txt_idx": "mediterranean-antiq",
        "comment": "",
        "available": true,
        "order": 11000,
        "start_date": null,
        "end_date": null,
        "parent": [
            "mediterranean"
        ]
    }
},
{
    "model": "archaeological_operations.period",
    "fields": {
        "label": "\u00c9poque archa\u00efque",
        "txt_idx": "archaic-epoc",
        "comment": "",
        "available": true,
        "order": 11900,
        "start_date": null,
        "end_date": null,
        "parent": [
            "mediterranean-antiq"
        ]
    }
},
{
    "model": "archaeological_operations.period",
    "fields": {
        "label": "\u00c9poque classique",
        "txt_idx": "classic-epoc",
        "comment": "",
        "available": true,
        "order": 11800,
        "start_date": null,
        "end_date": null,
        "parent": [
            "mediterranean-antiq"
        ]
    }
},
{
    "model": "archaeological_operations.period",
    "fields": {
        "label": "\u00c9poque hell\u00e9nistique",
        "txt_idx": "hellen-epoc",
        "comment": "",
        "available": true,
        "order": 11700,
        "start_date": null,
        "end_date": null,
        "parent": [
            "mediterranean-antiq"
        ]
    }
},
{
    "model": "archaeological_operations.period",
    "fields": {
        "label": "Antiquit\u00e9 tardive (M\u00e9diterran\u00e9e)",
        "txt_idx": "late-antiq-med",
        "comment": "",
        "available": true,
        "order": 11600,
        "start_date": null,
        "end_date": null,
        "parent": [
            "mediterranean-antiq"
        ]
    }
},
{
    "model": "archaeological_operations.period",
    "fields": {
        "label": "Antilles",
        "txt_idx": "antilles",
        "comment": "",
        "available": true,
        "order": 20000,
        "start_date": null,
        "end_date": null,
        "parent": null
    }
},
{
    "model": "archaeological_operations.period",
    "fields": {
        "label": "Pr\u00e9c\u00e9ramique (Antilles)",
        "txt_idx": "pre-pottery-antilles",
        "comment": "",
        "available": true,
        "order": 21000,
        "start_date": null,
        "end_date": null,
        "parent": [
            "antilles"
        ]
    }
},
{
    "model": "archaeological_operations.period",
    "fields": {
        "label": "Lithique (Antilles)",
        "txt_idx": "lithic-antilles",
        "comment": "",
        "available": true,
        "order": 21900,
        "start_date": null,
        "end_date": null,
        "parent": [
            "pre-pottery-antilles"
        ]
    }
},
{
    "model": "archaeological_operations.period",
    "fields": {
        "label": "Archa\u00efque (Antilles)",
        "txt_idx": "archaic-antilles",
        "comment": "",
        "available": true,
        "order": 21800,
        "start_date": null,
        "end_date": null,
        "parent": [
            "pre-pottery-antilles"
        ]
    }
},
{
    "model": "archaeological_operations.period",
    "fields": {
        "label": "C\u00e9ramique (Antilles)",
        "txt_idx": "pottery-antilles",
        "comment": "",
        "available": true,
        "order": 22000,
        "start_date": null,
        "end_date": null,
        "parent": [
            "antilles"
        ]
    }
},
{
    "model": "archaeological_operations.period",
    "fields": {
        "label": "Hu\u00e9co\u00efde (Antilles)",
        "txt_idx": "huecoide",
        "comment": "",
        "available": true,
        "order": 22900,
        "start_date": null,
        "end_date": null,
        "parent": [
            "pottery-antilles"
        ]
    }
},
{
    "model": "archaeological_operations.period",
    "fields": {
        "label": "Salado\u00efde (Antilles)",
        "txt_idx": "saladoide",
        "comment": "",
        "available": true,
        "order": 22800,
        "start_date": null,
        "end_date": null,
        "parent": [
            "pottery-antilles"
        ]
    }
},
{
    "model": "archaeological_operations.period",
    "fields": {
        "label": "Post-salado\u00efde ancien (Antilles)",
        "txt_idx": "old-post-saladoide",
        "comment": "",
        "available": true,
        "order": 22700,
        "start_date": null,
        "end_date": null,
        "parent": [
            "pottery-antilles"
        ]
    }
},
{
    "model": "archaeological_operations.period",
    "fields": {
        "label": "Post-salado\u00efde r\u00e9cent (Antilles)",
        "txt_idx": "recent-post-saladoide",
        "comment": "",
        "available": true,
        "order": 22600,
        "start_date": null,
        "end_date": null,
        "parent": [
            "pottery-antilles"
        ]
    }
},
{
    "model": "archaeological_operations.period",
    "fields": {
        "label": "Historique (Antilles)",
        "txt_idx": "historic-antilles",
        "comment": "",
        "available": true,
        "order": 23000,
        "start_date": null,
        "end_date": null,
        "parent": [
            "antilles"
        ]
    }
},
{
    "model": "archaeological_operations.period",
    "fields": {
        "label": "Pr\u00e9-colonial (Antilles)",
        "txt_idx": "precolonial-antilles",
        "comment": "",
        "available": true,
        "order": 23900,
        "start_date": null,
        "end_date": null,
        "parent": [
            "historic-antilles"
        ]
    }
},
{
    "model": "archaeological_operations.period",
    "fields": {
        "label": "Colonial moderne (Antilles)",
        "txt_idx": "modern-colonial-antilles",
        "comment": "",
        "available": true,
        "order": 23800,
        "start_date": null,
        "end_date": null,
        "parent": [
            "historic-antilles"
        ]
    }
},
{
    "model": "archaeological_operations.period",
    "fields": {
        "label": "P\u00e9riode contemporaine (Antilles)",
        "txt_idx": "contemporary-antilles",
        "comment": "",
        "available": true,
        "order": 23700,
        "start_date": null,
        "end_date": null,
        "parent": [
            "historic-antilles"
        ]
    }
},
{
    "model": "archaeological_operations.period",
    "fields": {
        "label": "\u00c9poque ind\u00e9termin\u00e9e (Antilles)",
        "txt_idx": "indeterminate-antilles",
        "comment": "",
        "available": true,
        "order": 24000,
        "start_date": null,
        "end_date": null,
        "parent": [
            "antilles"
        ]
    }
},
{
    "model": "archaeological_operations.period",
    "fields": {
        "label": "Guyane",
        "txt_idx": "guiana",
        "comment": "",
        "available": true,
        "order": 30000,
        "start_date": null,
        "end_date": null,
        "parent": null
    }
},
{
    "model": "archaeological_operations.period",
    "fields": {
        "label": "Pr\u00e9histoire (Guyane)",
        "txt_idx": "prehistory-guiana",
        "comment": "",
        "available": true,
        "order": 31000,
        "start_date": null,
        "end_date": null,
        "parent": [
            "guiana"
        ]
    }
},
{
    "model": "archaeological_operations.period",
    "fields": {
        "label": "Ac\u00e9ramique (Guyane)",
        "txt_idx": "prepottery-guiana",
        "comment": "",
        "available": true,
        "order": 31900,
        "start_date": null,
        "end_date": null,
        "parent": [
            "prehistory-guiana"
        ]
    }
},
{
    "model": "archaeological_operations.period",
    "fields": {
        "label": "P\u00e9riode am\u00e9rindienne (Guyane)",
        "txt_idx": "amerindian-guiana",
        "comment": "",
        "available": true,
        "order": 32000,
        "start_date": null,
        "end_date": null,
        "parent": [
            "guiana"
        ]
    }
},
{
    "model": "archaeological_operations.period",
    "fields": {
        "label": "P\u00e9riode am\u00e9rindienne ancienne (Guyane)",
        "txt_idx": "old-amerindian-guiana",
        "comment": "",
        "available": true,
        "order": 32900,
        "start_date": null,
        "end_date": null,
        "parent": [
            "amerindian-guiana"
        ]
    }
},
{
    "model": "archaeological_operations.period",
    "fields": {
        "label": "Pr\u00e9-contact (Guyane)",
        "txt_idx": "pre-contact-guiana",
        "comment": "",
        "available": true,
        "order": 32800,
        "start_date": null,
        "end_date": null,
        "parent": [
            "amerindian-guiana"
        ]
    }
},
{
    "model": "archaeological_operations.period",
    "fields": {
        "label": "Pr\u00e9-colonial (Guyane)",
        "txt_idx": "precolonial-guiana",
        "comment": "",
        "available": true,
        "order": 32700,
        "start_date": null,
        "end_date": null,
        "parent": [
            "amerindian-guiana"
        ]
    }
},
{
    "model": "archaeological_operations.period",
    "fields": {
        "label": "P\u00e9riode coloniale et d\u00e9partementale (Guyane)",
        "txt_idx": "colonial-guiana",
        "comment": "",
        "available": true,
        "order": 33000,
        "start_date": null,
        "end_date": null,
        "parent": [
            "guiana"
        ]
    }
},
{
    "model": "archaeological_operations.period",
    "fields": {
        "label": "P\u00e9riode de colonisation (Guyane)",
        "txt_idx": "colonisation-guiana",
        "comment": "",
        "available": true,
        "order": 33900,
        "start_date": null,
        "end_date": null,
        "parent": [
            "colonial-guiana"
        ]
    }
},
{
    "model": "archaeological_operations.period",
    "fields": {
        "label": "Colonisation affirm\u00e9e (Guyane)",
        "txt_idx": "asserted-colonisation-guiana",
        "comment": "",
        "available": true,
        "order": 33800,
        "start_date": null,
        "end_date": null,
        "parent": [
            "colonial-guiana"
        ]
    }
},
{
    "model": "archaeological_operations.period",
    "fields": {
        "label": "Contemporain (Guyane)",
        "txt_idx": "contemporary-guiana",
        "comment": "",
        "available": true,
        "order": 33700,
        "start_date": null,
        "end_date": null,
        "parent": [
            "colonial-guiana"
        ]
    }
},
{
    "model": "archaeological_operations.period",
    "fields": {
        "label": "\u00c9poque ind\u00e9termin\u00e9e (Guyane)",
        "txt_idx": "indeterminate-guiana",
        "comment": "",
        "available": true,
        "order": 34000,
        "start_date": null,
        "end_date": null,
        "parent": [
            "guiana"
        ]
    }
},
{
    "model": "archaeological_operations.remaintype",
    "fields": {
        "label": "villa",
        "txt_idx": "villa",
        "comment": "",
        "available": true
    }
},
{
    "model": "archaeological_operations.remaintype",
    "fields": {
        "label": "enclos",
        "txt_idx": "enclosure",
        "comment": "",
        "available": true
    }
},
{
    "model": "archaeological_operations.remaintype",
    "fields": {
        "label": "\u00e9glise",
        "txt_idx": "church",
        "comment": "",
        "available": true
    }
},
{
    "model": "archaeological_operations.remaintype",
    "fields": {
        "label": "cairn",
        "txt_idx": "cairn",
        "comment": "",
        "available": true
    }
},
{
    "model": "archaeological_operations.remaintype",
    "fields": {
        "label": "foss\u00e9",
        "txt_idx": "ditch",
        "comment": "",
        "available": true
    }
},
{
    "model": "archaeological_operations.remaintype",
    "fields": {
        "label": "ch\u00e2teau",
        "txt_idx": "castle",
        "comment": "",
        "available": true
    }
},
{
    "model": "archaeological_operations.remaintype",
    "fields": {
        "label": "motte castrale",
        "txt_idx": "motte-castrale",
        "comment": "",
        "available": true
    }
},
{
    "model": "archaeological_operations.remaintype",
    "fields": {
        "label": "menhir",
        "txt_idx": "menhir",
        "comment": "",
        "available": true
    }
},
{
    "model": "archaeological_operations.remaintype",
    "fields": {
        "label": "aile",
        "txt_idx": "aile",
        "comment": null,
        "available": true
    }
},
{
    "model": "archaeological_operations.remaintype",
    "fields": {
        "label": "aire de battage",
        "txt_idx": "aire-de-battage",
        "comment": null,
        "available": true
    }
},
{
    "model": "archaeological_operations.remaintype",
    "fields": {
        "label": "amas",
        "txt_idx": "amas",
        "comment": null,
        "available": true
    }
},
{
    "model": "archaeological_operations.remaintype",
    "fields": {
        "label": "amas coquillier",
        "txt_idx": "amas-coquillier",
        "comment": null,
        "available": true
    }
},
{
    "model": "archaeological_operations.remaintype",
    "fields": {
        "label": "amas de d\u00e9bitage",
        "txt_idx": "amas-de-debitage",
        "comment": null,
        "available": true
    }
},
{
    "model": "archaeological_operations.remaintype",
    "fields": {
        "label": "am\u00e9nagement ind\u00e9termin\u00e9",
        "txt_idx": "amenagement-indetermine",
        "comment": null,
        "available": true
    }
},
{
    "model": "archaeological_operations.remaintype",
    "fields": {
        "label": "anomalie",
        "txt_idx": "anomalie",
        "comment": null,
        "available": true
    }
},
{
    "model": "archaeological_operations.remaintype",
    "fields": {
        "label": "arc",
        "txt_idx": "arc",
        "comment": null,
        "available": true
    }
},
{
    "model": "archaeological_operations.remaintype",
    "fields": {
        "label": "arcasse",
        "txt_idx": "arcasse",
        "comment": null,
        "available": true
    }
},
{
    "model": "archaeological_operations.remaintype",
    "fields": {
        "label": "arche",
        "txt_idx": "arche",
        "comment": null,
        "available": true
    }
},
{
    "model": "archaeological_operations.remaintype",
    "fields": {
        "label": "aula",
        "txt_idx": "aula",
        "comment": null,
        "available": true
    }
},
{
    "model": "archaeological_operations.remaintype",
    "fields": {
        "label": "autel",
        "txt_idx": "autel",
        "comment": null,
        "available": true
    }
},
{
    "model": "archaeological_operations.remaintype",
    "fields": {
        "label": "banquette",
        "txt_idx": "banquette",
        "comment": null,
        "available": true
    }
},
{
    "model": "archaeological_operations.remaintype",
    "fields": {
        "label": "barbacane",
        "txt_idx": "barbacane",
        "comment": null,
        "available": true
    }
},
{
    "model": "archaeological_operations.remaintype",
    "fields": {
        "label": "barrot",
        "txt_idx": "barrot",
        "comment": null,
        "available": true
    }
},
{
    "model": "archaeological_operations.remaintype",
    "fields": {
        "label": "basse-cour",
        "txt_idx": "basse-cour",
        "comment": null,
        "available": true
    }
},
{
    "model": "archaeological_operations.remaintype",
    "fields": {
        "label": "bassin",
        "txt_idx": "bassin",
        "comment": null,
        "available": true
    }
},
{
    "model": "archaeological_operations.remaintype",
    "fields": {
        "label": "bastion",
        "txt_idx": "bastion",
        "comment": null,
        "available": true
    }
},
{
    "model": "archaeological_operations.remaintype",
    "fields": {
        "label": "b\u00e2timent",
        "txt_idx": "batiment",
        "comment": null,
        "available": true
    }
},
{
    "model": "archaeological_operations.remaintype",
    "fields": {
        "label": "bloc",
        "txt_idx": "bloc",
        "comment": null,
        "available": true
    }
},
{
    "model": "archaeological_operations.remaintype",
    "fields": {
        "label": "bloc orn\u00e9",
        "txt_idx": "bloc-orne",
        "comment": null,
        "available": true
    }
},
{
    "model": "archaeological_operations.remaintype",
    "fields": {
        "label": "bloc ouvrag\u00e9",
        "txt_idx": "bloc-ouvrage",
        "comment": null,
        "available": true
    }
},
{
    "model": "archaeological_operations.remaintype",
    "fields": {
        "label": "boisage",
        "txt_idx": "boisage",
        "comment": null,
        "available": true
    }
},
{
    "model": "archaeological_operations.remaintype",
    "fields": {
        "label": "boniferie",
        "txt_idx": "boniferie",
        "comment": null,
        "available": true
    }
},
{
    "model": "archaeological_operations.remaintype",
    "fields": {
        "label": "bord\u00e9",
        "txt_idx": "borde",
        "comment": null,
        "available": true
    }
},
{
    "model": "archaeological_operations.remaintype",
    "fields": {
        "label": "bord\u00e9 \u00e0 clin",
        "txt_idx": "borde-a-clin",
        "comment": null,
        "available": true
    }
},
{
    "model": "archaeological_operations.remaintype",
    "fields": {
        "label": "bord\u00e9 \u00e0 franc-bord",
        "txt_idx": "borde-a-franc-bord",
        "comment": null,
        "available": true
    }
},
{
    "model": "archaeological_operations.remaintype",
    "fields": {
        "label": "borne",
        "txt_idx": "borne",
        "comment": null,
        "available": true
    }
},
{
    "model": "archaeological_operations.remaintype",
    "fields": {
        "label": "butte",
        "txt_idx": "butte",
        "comment": null,
        "available": true
    }
},
{
    "model": "archaeological_operations.remaintype",
    "fields": {
        "label": "calage",
        "txt_idx": "calage",
        "comment": null,
        "available": true
    }
},
{
    "model": "archaeological_operations.remaintype",
    "fields": {
        "label": "calfatage",
        "txt_idx": "calfatage",
        "comment": null,
        "available": true
    }
},
{
    "model": "archaeological_operations.remaintype",
    "fields": {
        "label": "calvaire",
        "txt_idx": "calvaire",
        "comment": null,
        "available": true
    }
},
{
    "model": "archaeological_operations.remaintype",
    "fields": {
        "label": "canalisation",
        "txt_idx": "canalisation",
        "comment": null,
        "available": true
    }
},
{
    "model": "archaeological_operations.remaintype",
    "fields": {
        "label": "cargaison",
        "txt_idx": "cargaison",
        "comment": null,
        "available": true
    }
},
{
    "model": "archaeological_operations.remaintype",
    "fields": {
        "label": "cave",
        "txt_idx": "cave",
        "comment": null,
        "available": true
    }
},
{
    "model": "archaeological_operations.remaintype",
    "fields": {
        "label": "cercueil",
        "txt_idx": "cercueil",
        "comment": null,
        "available": true
    }
},
{
    "model": "archaeological_operations.remaintype",
    "fields": {
        "label": "charpente",
        "txt_idx": "charpente",
        "comment": null,
        "available": true
    }
},
{
    "model": "archaeological_operations.remaintype",
    "fields": {
        "label": "clo\u00eetre",
        "txt_idx": "cloitre",
        "comment": null,
        "available": true
    }
},
{
    "model": "archaeological_operations.remaintype",
    "fields": {
        "label": "cockpit",
        "txt_idx": "cockpit",
        "comment": null,
        "available": true
    }
},
{
    "model": "archaeological_operations.remaintype",
    "fields": {
        "label": "colonnade",
        "txt_idx": "colonnade",
        "comment": null,
        "available": true
    }
},
{
    "model": "archaeological_operations.remaintype",
    "fields": {
        "label": "colonne (\u00e9l\u00e9ment de)",
        "txt_idx": "colonne-element-de",
        "comment": null,
        "available": true
    }
},
{
    "model": "archaeological_operations.remaintype",
    "fields": {
        "label": "construction",
        "txt_idx": "construction",
        "comment": null,
        "available": true
    }
},
{
    "model": "archaeological_operations.remaintype",
    "fields": {
        "label": "coque",
        "txt_idx": "coque",
        "comment": null,
        "available": true
    }
},
{
    "model": "archaeological_operations.remaintype",
    "fields": {
        "label": "coque bord\u00e9-premier",
        "txt_idx": "coque-borde-premier",
        "comment": null,
        "available": true
    }
},
{
    "model": "archaeological_operations.remaintype",
    "fields": {
        "label": "coque membrure-premi\u00e8re",
        "txt_idx": "coque-membrure-premiere",
        "comment": null,
        "available": true
    }
},
{
    "model": "archaeological_operations.remaintype",
    "fields": {
        "label": "couple",
        "txt_idx": "couple",
        "comment": null,
        "available": true
    }
},
{
    "model": "archaeological_operations.remaintype",
    "fields": {
        "label": "cour",
        "txt_idx": "cour",
        "comment": null,
        "available": true
    }
},
{
    "model": "archaeological_operations.remaintype",
    "fields": {
        "label": "courtine",
        "txt_idx": "courtine",
        "comment": null,
        "available": true
    }
},
{
    "model": "archaeological_operations.remaintype",
    "fields": {
        "label": "croix",
        "txt_idx": "croix",
        "comment": null,
        "available": true
    }
},
{
    "model": "archaeological_operations.remaintype",
    "fields": {
        "label": "crypte",
        "txt_idx": "crypte",
        "comment": null,
        "available": true
    }
},
{
    "model": "archaeological_operations.remaintype",
    "fields": {
        "label": "cryptoportique",
        "txt_idx": "cryptoportique",
        "comment": null,
        "available": true
    }
},
{
    "model": "archaeological_operations.remaintype",
    "fields": {
        "label": "cuve",
        "txt_idx": "cuve",
        "comment": null,
        "available": true
    }
},
{
    "model": "archaeological_operations.remaintype",
    "fields": {
        "label": "cuvelage",
        "txt_idx": "cuvelage",
        "comment": null,
        "available": true
    }
},
{
    "model": "archaeological_operations.remaintype",
    "fields": {
        "label": "dallage",
        "txt_idx": "dallage",
        "comment": null,
        "available": true
    }
},
{
    "model": "archaeological_operations.remaintype",
    "fields": {
        "label": "demi-lune",
        "txt_idx": "demi-lune",
        "comment": null,
        "available": true
    }
},
{
    "model": "archaeological_operations.remaintype",
    "fields": {
        "label": "d\u00e9potoir",
        "txt_idx": "depotoir",
        "comment": null,
        "available": true
    }
},
{
    "model": "archaeological_operations.remaintype",
    "fields": {
        "label": "d\u00e9rive",
        "txt_idx": "derive",
        "comment": null,
        "available": true
    }
},
{
    "model": "archaeological_operations.remaintype",
    "fields": {
        "label": "doublage",
        "txt_idx": "doublage",
        "comment": null,
        "available": true
    }
},
{
    "model": "archaeological_operations.remaintype",
    "fields": {
        "label": "empierrement",
        "txt_idx": "empierrement",
        "comment": null,
        "available": true
    }
},
{
    "model": "archaeological_operations.remaintype",
    "fields": {
        "label": "emplanture",
        "txt_idx": "emplanture",
        "comment": null,
        "available": true
    }
},
{
    "model": "archaeological_operations.remaintype",
    "fields": {
        "label": "empreinte",
        "txt_idx": "empreinte",
        "comment": null,
        "available": true
    }
},
{
    "model": "archaeological_operations.remaintype",
    "fields": {
        "label": "enclos",
        "txt_idx": "enclos",
        "comment": null,
        "available": true
    }
},
{
    "model": "archaeological_operations.remaintype",
    "fields": {
        "label": "enclos (syst\u00e8me d')",
        "txt_idx": "enclos-systeme-d",
        "comment": null,
        "available": true
    }
},
{
    "model": "archaeological_operations.remaintype",
    "fields": {
        "label": "entr\u00e9e am\u00e9nag\u00e9e",
        "txt_idx": "entree-amenagee",
        "comment": null,
        "available": true
    }
},
{
    "model": "archaeological_operations.remaintype",
    "fields": {
        "label": "escalier",
        "txt_idx": "escalier",
        "comment": null,
        "available": true
    }
},
{
    "model": "archaeological_operations.remaintype",
    "fields": {
        "label": "\u00e9tambot",
        "txt_idx": "etambot",
        "comment": null,
        "available": true
    }
},
{
    "model": "archaeological_operations.remaintype",
    "fields": {
        "label": "\u00e9trave",
        "txt_idx": "etrave",
        "comment": null,
        "available": true
    }
},
{
    "model": "archaeological_operations.remaintype",
    "fields": {
        "label": "\u00e9trave \u00e0 \u00e9peron",
        "txt_idx": "etrave-a-eperon",
        "comment": null,
        "available": true
    }
},
{
    "model": "archaeological_operations.remaintype",
    "fields": {
        "label": "\u00e9tuve",
        "txt_idx": "etuve",
        "comment": null,
        "available": true
    }
},
{
    "model": "archaeological_operations.remaintype",
    "fields": {
        "label": "ferrier",
        "txt_idx": "ferrier",
        "comment": null,
        "available": true
    }
},
{
    "model": "archaeological_operations.remaintype",
    "fields": {
        "label": "fondation",
        "txt_idx": "fondation",
        "comment": null,
        "available": true
    }
},
{
    "model": "archaeological_operations.remaintype",
    "fields": {
        "label": "fosse",
        "txt_idx": "fosse",
        "comment": null,
        "available": true
    }
},
{
    "model": "archaeological_operations.remaintype",
    "fields": {
        "label": "foss\u00e9s (r\u00e9seau de)",
        "txt_idx": "fosses-reseau-de",
        "comment": null,
        "available": true
    }
},
{
    "model": "archaeological_operations.remaintype",
    "fields": {
        "label": "four",
        "txt_idx": "four",
        "comment": null,
        "available": true
    }
},
{
    "model": "archaeological_operations.remaintype",
    "fields": {
        "label": "foyer",
        "txt_idx": "foyer",
        "comment": null,
        "available": true
    }
},
{
    "model": "archaeological_operations.remaintype",
    "fields": {
        "label": "foyer (vidange de)",
        "txt_idx": "foyer-vidange-de",
        "comment": null,
        "available": true
    }
},
{
    "model": "archaeological_operations.remaintype",
    "fields": {
        "label": "front de taille",
        "txt_idx": "front-de-taille",
        "comment": null,
        "available": true
    }
},
{
    "model": "archaeological_operations.remaintype",
    "fields": {
        "label": "fuselage",
        "txt_idx": "fuselage",
        "comment": null,
        "available": true
    }
},
{
    "model": "archaeological_operations.remaintype",
    "fields": {
        "label": "galerie",
        "txt_idx": "galerie",
        "comment": null,
        "available": true
    }
},
{
    "model": "archaeological_operations.remaintype",
    "fields": {
        "label": "garenne",
        "txt_idx": "garenne",
        "comment": null,
        "available": true
    }
},
{
    "model": "archaeological_operations.remaintype",
    "fields": {
        "label": "glaci\u00e8re",
        "txt_idx": "glaciere",
        "comment": null,
        "available": true
    }
},
{
    "model": "archaeological_operations.remaintype",
    "fields": {
        "label": "gouvernail",
        "txt_idx": "gouvernail",
        "comment": null,
        "available": true
    }
},
{
    "model": "archaeological_operations.remaintype",
    "fields": {
        "label": "gradins",
        "txt_idx": "gradins",
        "comment": null,
        "available": true
    }
},
{
    "model": "archaeological_operations.remaintype",
    "fields": {
        "label": "grange",
        "txt_idx": "grange",
        "comment": null,
        "available": true
    }
},
{
    "model": "archaeological_operations.remaintype",
    "fields": {
        "label": "grenier",
        "txt_idx": "grenier",
        "comment": null,
        "available": true
    }
},
{
    "model": "archaeological_operations.remaintype",
    "fields": {
        "label": "h\u00e9lice",
        "txt_idx": "helice",
        "comment": null,
        "available": true
    }
},
{
    "model": "archaeological_operations.remaintype",
    "fields": {
        "label": "hypocauste",
        "txt_idx": "hypocauste",
        "comment": null,
        "available": true
    }
},
{
    "model": "archaeological_operations.remaintype",
    "fields": {
        "label": "incin\u00e9ration",
        "txt_idx": "incineration",
        "comment": null,
        "available": true
    }
},
{
    "model": "archaeological_operations.remaintype",
    "fields": {
        "label": "inhumation",
        "txt_idx": "inhumation",
        "comment": null,
        "available": true
    }
},
{
    "model": "archaeological_operations.remaintype",
    "fields": {
        "label": "inscription",
        "txt_idx": "inscription",
        "comment": null,
        "available": true
    }
},
{
    "model": "archaeological_operations.remaintype",
    "fields": {
        "label": "jardin",
        "txt_idx": "jardin",
        "comment": null,
        "available": true
    }
},
{
    "model": "archaeological_operations.remaintype",
    "fields": {
        "label": "laraire",
        "txt_idx": "laraire",
        "comment": null,
        "available": true
    }
},
{
    "model": "archaeological_operations.remaintype",
    "fields": {
        "label": "latrines",
        "txt_idx": "latrines",
        "comment": null,
        "available": true
    }
},
{
    "model": "archaeological_operations.remaintype",
    "fields": {
        "label": "lest",
        "txt_idx": "lest",
        "comment": null,
        "available": true
    }
},
{
    "model": "archaeological_operations.remaintype",
    "fields": {
        "label": "lev\u00e9e",
        "txt_idx": "levee",
        "comment": null,
        "available": true
    }
},
{
    "model": "archaeological_operations.remaintype",
    "fields": {
        "label": "m\u00e2t",
        "txt_idx": "mat",
        "comment": null,
        "available": true
    }
},
{
    "model": "archaeological_operations.remaintype",
    "fields": {
        "label": "membrure",
        "txt_idx": "membrure",
        "comment": null,
        "available": true
    }
},
{
    "model": "archaeological_operations.remaintype",
    "fields": {
        "label": "meule fixe",
        "txt_idx": "meule-fixe",
        "comment": null,
        "available": true
    }
},
{
    "model": "archaeological_operations.remaintype",
    "fields": {
        "label": "mosa\u00efque",
        "txt_idx": "mosaique",
        "comment": null,
        "available": true
    }
},
{
    "model": "archaeological_operations.remaintype",
    "fields": {
        "label": "moteur",
        "txt_idx": "moteur",
        "comment": null,
        "available": true
    }
},
{
    "model": "archaeological_operations.remaintype",
    "fields": {
        "label": "moule \u00e0 cloches",
        "txt_idx": "moule-a-cloches",
        "comment": null,
        "available": true
    }
},
{
    "model": "archaeological_operations.remaintype",
    "fields": {
        "label": "mur",
        "txt_idx": "mur",
        "comment": null,
        "available": true
    }
},
{
    "model": "archaeological_operations.remaintype",
    "fields": {
        "label": "niche",
        "txt_idx": "niche",
        "comment": null,
        "available": true
    }
},
{
    "model": "archaeological_operations.remaintype",
    "fields": {
        "label": "niveau d'occupation",
        "txt_idx": "niveau-doccupation",
        "comment": null,
        "available": true
    }
},
{
    "model": "archaeological_operations.remaintype",
    "fields": {
        "label": "oratoire",
        "txt_idx": "oratoire",
        "comment": null,
        "available": true
    }
},
{
    "model": "archaeological_operations.remaintype",
    "fields": {
        "label": "orni\u00e8re",
        "txt_idx": "orniere",
        "comment": null,
        "available": true
    }
},
{
    "model": "archaeological_operations.remaintype",
    "fields": {
        "label": "ouvrage avanc\u00e9",
        "txt_idx": "ouvrage-avance",
        "comment": null,
        "available": true
    }
},
{
    "model": "archaeological_operations.remaintype",
    "fields": {
        "label": "palissade",
        "txt_idx": "palissade",
        "comment": null,
        "available": true
    }
},
{
    "model": "archaeological_operations.remaintype",
    "fields": {
        "label": "paroi orn\u00e9e",
        "txt_idx": "paroi-ornee",
        "comment": null,
        "available": true
    }
},
{
    "model": "archaeological_operations.remaintype",
    "fields": {
        "label": "pavage",
        "txt_idx": "pavage",
        "comment": null,
        "available": true
    }
},
{
    "model": "archaeological_operations.remaintype",
    "fields": {
        "label": "pieu",
        "txt_idx": "pieu",
        "comment": null,
        "available": true
    }
},
{
    "model": "archaeological_operations.remaintype",
    "fields": {
        "label": "pigeonnier",
        "txt_idx": "pigeonnier",
        "comment": null,
        "available": true
    }
},
{
    "model": "archaeological_operations.remaintype",
    "fields": {
        "label": "pile",
        "txt_idx": "pile",
        "comment": null,
        "available": true
    }
},
{
    "model": "archaeological_operations.remaintype",
    "fields": {
        "label": "plafond",
        "txt_idx": "plafond",
        "comment": null,
        "available": true
    }
},
{
    "model": "archaeological_operations.remaintype",
    "fields": {
        "label": "plancher",
        "txt_idx": "plancher",
        "comment": null,
        "available": true
    }
},
{
    "model": "archaeological_operations.remaintype",
    "fields": {
        "label": "polissoir fixe",
        "txt_idx": "polissoir-fixe",
        "comment": null,
        "available": true
    }
},
{
    "model": "archaeological_operations.remaintype",
    "fields": {
        "label": "pont de bateau",
        "txt_idx": "pont-de-bateau",
        "comment": null,
        "available": true
    }
},
{
    "model": "archaeological_operations.remaintype",
    "fields": {
        "label": "porte",
        "txt_idx": "porte",
        "comment": null,
        "available": true
    }
},
{
    "model": "archaeological_operations.remaintype",
    "fields": {
        "label": "portique",
        "txt_idx": "portique",
        "comment": null,
        "available": true
    }
},
{
    "model": "archaeological_operations.remaintype",
    "fields": {
        "label": "pr\u00e9ceinte",
        "txt_idx": "preceinte",
        "comment": null,
        "available": true
    }
},
{
    "model": "archaeological_operations.remaintype",
    "fields": {
        "label": "pressoir",
        "txt_idx": "pressoir",
        "comment": null,
        "available": true
    }
},
{
    "model": "archaeological_operations.remaintype",
    "fields": {
        "label": "puits",
        "txt_idx": "puits",
        "comment": null,
        "available": true
    }
},
{
    "model": "archaeological_operations.remaintype",
    "fields": {
        "label": "purgerie",
        "txt_idx": "purgerie",
        "comment": null,
        "available": true
    }
},
{
    "model": "archaeological_operations.remaintype",
    "fields": {
        "label": "quille",
        "txt_idx": "quille",
        "comment": null,
        "available": true
    }
},
{
    "model": "archaeological_operations.remaintype",
    "fields": {
        "label": "r\u00e9cipient fixe",
        "txt_idx": "recipient-fixe",
        "comment": null,
        "available": true
    }
},
{
    "model": "archaeological_operations.remaintype",
    "fields": {
        "label": "rempart",
        "txt_idx": "rempart",
        "comment": null,
        "available": true
    }
},
{
    "model": "archaeological_operations.remaintype",
    "fields": {
        "label": "sarcophage",
        "txt_idx": "sarcophage",
        "comment": null,
        "available": true
    }
},
{
    "model": "archaeological_operations.remaintype",
    "fields": {
        "label": "silo",
        "txt_idx": "silo",
        "comment": null,
        "available": true
    }
},
{
    "model": "archaeological_operations.remaintype",
    "fields": {
        "label": "sol d'occupation",
        "txt_idx": "sol-doccupation",
        "comment": null,
        "available": true
    }
},
{
    "model": "archaeological_operations.remaintype",
    "fields": {
        "label": "sol orn\u00e9",
        "txt_idx": "sol-orne",
        "comment": null,
        "available": true
    }
},
{
    "model": "archaeological_operations.remaintype",
    "fields": {
        "label": "source am\u00e9nag\u00e9e",
        "txt_idx": "source-amenagee",
        "comment": null,
        "available": true
    }
},
{
    "model": "archaeological_operations.remaintype",
    "fields": {
        "label": "souterrain",
        "txt_idx": "souterrain",
        "comment": null,
        "available": true
    }
},
{
    "model": "archaeological_operations.remaintype",
    "fields": {
        "label": "statue",
        "txt_idx": "statue",
        "comment": null,
        "available": true
    }
},
{
    "model": "archaeological_operations.remaintype",
    "fields": {
        "label": "statue-menhir",
        "txt_idx": "statue-menhir",
        "comment": null,
        "available": true
    }
},
{
    "model": "archaeological_operations.remaintype",
    "fields": {
        "label": "st\u00e8le",
        "txt_idx": "stele",
        "comment": null,
        "available": true
    }
},
{
    "model": "archaeological_operations.remaintype",
    "fields": {
        "label": "talus",
        "txt_idx": "talus",
        "comment": null,
        "available": true
    }
},
{
    "model": "archaeological_operations.remaintype",
    "fields": {
        "label": "tour",
        "txt_idx": "tour",
        "comment": null,
        "available": true
    }
},
{
    "model": "archaeological_operations.remaintype",
    "fields": {
        "label": "trace agraire",
        "txt_idx": "trace-agraire",
        "comment": null,
        "available": true
    }
},
{
    "model": "archaeological_operations.remaintype",
    "fields": {
        "label": "train d'atterrissage",
        "txt_idx": "train-datterrissage",
        "comment": null,
        "available": true
    }
},
{
    "model": "archaeological_operations.remaintype",
    "fields": {
        "label": "tranch\u00e9e d'extraction",
        "txt_idx": "tranchee-dextraction",
        "comment": null,
        "available": true
    }
},
{
    "model": "archaeological_operations.remaintype",
    "fields": {
        "label": "trou de jauge",
        "txt_idx": "trou-de-jauge",
        "comment": null,
        "available": true
    }
},
{
    "model": "archaeological_operations.remaintype",
    "fields": {
        "label": "trou de poteau",
        "txt_idx": "trou-de-poteau",
        "comment": null,
        "available": true
    }
},
{
    "model": "archaeological_operations.remaintype",
    "fields": {
        "label": "trous de poteau (ensemble de)",
        "txt_idx": "trous-de-poteau-ensemble-de",
        "comment": null,
        "available": true
    }
},
{
    "model": "archaeological_operations.remaintype",
    "fields": {
        "label": "tunnel",
        "txt_idx": "tunnel",
        "comment": null,
        "available": true
    }
},
{
    "model": "archaeological_operations.remaintype",
    "fields": {
        "label": "urne",
        "txt_idx": "urne",
        "comment": null,
        "available": true
    }
},
{
    "model": "archaeological_operations.remaintype",
    "fields": {
        "label": "vaigre",
        "txt_idx": "vaigre",
        "comment": null,
        "available": true
    }
},
{
    "model": "archaeological_operations.remaintype",
    "fields": {
        "label": "verri\u00e8re",
        "txt_idx": "verriere",
        "comment": null,
        "available": true
    }
},
{
    "model": "archaeological_operations.remaintype",
    "fields": {
        "label": "virure",
        "txt_idx": "virure",
        "comment": null,
        "available": true
    }
},
{
    "model": "archaeological_operations.remaintype",
    "fields": {
        "label": "zone de rejet",
        "txt_idx": "zone-de-rejet",
        "comment": null,
        "available": true
    }
},
{
    "model": "archaeological_operations.reportstate",
    "fields": {
        "label": "Re\u00e7u et non d\u00e9pouill\u00e9",
        "txt_idx": "received",
        "comment": "Le rapport a \u00e9t\u00e9 re\u00e7u mais n'est pas encore d\u00e9pouill\u00e9.",
        "available": true,
        "order": 2
    }
},
{
    "model": "archaeological_operations.reportstate",
    "fields": {
        "label": "Non re\u00e7u",
        "txt_idx": "not_received",
        "comment": "Ce rapport n'a pas encore \u00e9t\u00e9 re\u00e7u.",
        "available": true,
        "order": 1
    }
},
{
    "model": "archaeological_operations.reportstate",
    "fields": {
        "label": "Rapport inexistant",
        "txt_idx": "no-report",
        "comment": "Il n'existe pas de rapport pour cette op\u00e9ration.",
        "available": true,
        "order": 7
    }
},
{
    "model": "archaeological_operations.reportstate",
    "fields": {
        "label": "Re\u00e7us et non d\u00e9pouill\u00e9s",
        "txt_idx": "received__not_processed",
        "comment": "Plusieurs rapports ont \u00e9t\u00e9 re\u00e7us mais ne sont pas encore d\u00e9pouill\u00e9s.",
        "available": true,
        "order": 3
    }
},
{
    "model": "archaeological_operations.reportstate",
    "fields": {
        "label": "Re\u00e7us et d\u00e9pouill\u00e9s",
        "txt_idx": "received_and_processed",
        "comment": "Tous les rapports ont \u00e9t\u00e9 re\u00e7us mais n'ont pas \u00e9t\u00e9 encore d\u00e9pouill\u00e9s.",
        "available": true,
        "order": 6
    }
},
{
    "model": "archaeological_operations.reportstate",
    "fields": {
        "label": "Re\u00e7u et d\u00e9pouill\u00e9",
        "txt_idx": "one_report_received_and_processed",
        "comment": "Le rapport (unique) a \u00e9t\u00e9 re\u00e7u et d\u00e9pouill\u00e9.",
        "available": true,
        "order": 5
    }
},
{
    "model": "archaeological_operations.reportstate",
    "fields": {
        "label": "Re\u00e7us, partiellement d\u00e9pouill\u00e9s",
        "txt_idx": "reports_received_partially_processed",
        "comment": "Plusieurs rapports ont \u00e9t\u00e9 re\u00e7us mais ne sont que partiellement d\u00e9pouill\u00e9s.",
        "available": true,
        "order": 4
    }
}
]
